13:09:39	 From  Sujay V : export PATH="~/sonar-scanner/sonar-scanner-4.3.0.2102-linux/bin:$PATH"
13:11:26	 From  Sujay V : $ source ~/.bashrc
13:12:14	 From  Sujay V : echo $PATH
13:13:19	 From  Sujay V : src/test/tests/extensibility/SolutionManager 
